{
	"name" : "mycct",
	"rbend" : 0.5,
	"rharm" : 0.015,
	"coils" : 
	[
		{
			"name" : "layer 1",
			"n" : 1,
			"reverse" : false,
			"horizontal" : false,
			"nd" : 2,
			"nw" : 5,
			"dcable" : 2.0e-3,
			"wcable" : 5.0e-3,
			"rref" : 30e-3,
			"rcoil" : 30e-3,
			"delta" : 0.5e-3,
			"alpha" : 30.0,
			"ell" : 0.4,
			"nnpt": 180,
			"current" : 400,
			"temperature" : 1.9,
			"drive_id" : 0,
			"wire" : "../materials/ltswire/NbTi_LHC_1p9.json"
		},
		{
			"name" : "layer 2",
			"n" : 1,
			"reverse" : true,
			"horizontal" : false,
			"nd" : 2,
			"nw" : 5,
			"dcable" : 2.0e-3,
			"wcable" : 5.0e-3,		
			"rref" : 30e-3,
			"rcoil" : 38e-3,
			"delta" : 0.5e-3,
			"alpha" : 30.0,
			"ell" : 0.4,
			"nnpt": 180,
			"current" : 400,
			"temperature" : 1.9,
			"drive_id" : 0,
			"wire" : "../materials/ltswire/NbTi_LHC_1p9.json"
		}
	]
}